# MagicaVoxel @ Ephtracy

# group
o 

# material
mtllib Stena.mtl
usemtl palette

# normals
vn -1 0 0
vn 1 0 0
vn 0 0 1
vn 0 0 -1
vn 0 -1 0
vn 0 1 0

# texcoords
vt 0.970703 0.5
vt 0.974609 0.5
vt 0.978516 0.5
vt 0.982422 0.5

# verts
v -1.6 0 1.4
v -1.6 0 -1.3
v -1.6 0.9 1.4
v -1.6 0.9 -1.3
v -1.4 3.9 1.4
v -1.4 3.9 -1.3
v -1.4 4.2 1.4
v -1.4 4.2 -1.3
v -1.3 0.9 1.4
v -1.3 0.9 0.1
v -1.3 0.9 0
v -1.3 0.9 -1.3
v -1.3 1.2 1.4
v -1.3 1.2 0.1
v -1.3 1.2 0
v -1.3 1.2 -1.3
v -1.3 1.3 1.4
v -1.3 1.3 1
v -1.3 1.3 0.9
v -1.3 1.3 0.4
v -1.3 1.3 0.3
v -1.3 1.3 -0.2
v -1.3 1.3 -0.3
v -1.3 1.3 -0.8
v -1.3 1.3 -0.9
v -1.3 1.3 -1.3
v -1.3 1.6 1.4
v -1.3 1.6 1
v -1.3 1.6 0.9
v -1.3 1.6 0.4
v -1.3 1.6 0.3
v -1.3 1.6 -0.2
v -1.3 1.6 -0.3
v -1.3 1.6 -0.8
v -1.3 1.6 -0.9
v -1.3 1.6 -1.3
v -1.3 1.7 1.4
v -1.3 1.7 0.1
v -1.3 1.7 0
v -1.3 1.7 -1.3
v -1.3 2 1.4
v -1.3 2 0.1
v -1.3 2 0
v -1.3 2 -1.3
v -1.3 2.1 1.4
v -1.3 2.1 1
v -1.3 2.1 0.9
v -1.3 2.1 0.4
v -1.3 2.1 0.3
v -1.3 2.1 -0.2
v -1.3 2.1 -0.3
v -1.3 2.1 -0.8
v -1.3 2.1 -0.9
v -1.3 2.1 -1.3
v -1.3 2.4 1.4
v -1.3 2.4 1
v -1.3 2.4 0.9
v -1.3 2.4 0.4
v -1.3 2.4 0.3
v -1.3 2.4 -0.2
v -1.3 2.4 -0.3
v -1.3 2.4 -0.8
v -1.3 2.4 -0.9
v -1.3 2.4 -1.3
v -1.3 2.5 1.4
v -1.3 2.5 0.1
v -1.3 2.5 0
v -1.3 2.5 -1.3
v -1.3 2.8 1.4
v -1.3 2.8 0.1
v -1.3 2.8 0
v -1.3 2.8 -1.3
v -1.3 2.9 1.4
v -1.3 2.9 1
v -1.3 2.9 0.9
v -1.3 2.9 0.4
v -1.3 2.9 0.3
v -1.3 2.9 -0.2
v -1.3 2.9 -0.3
v -1.3 2.9 -0.8
v -1.3 2.9 -0.9
v -1.3 2.9 -1.3
v -1.3 3.2 1.4
v -1.3 3.2 1
v -1.3 3.2 0.9
v -1.3 3.2 0.4
v -1.3 3.2 0.3
v -1.3 3.2 -0.2
v -1.3 3.2 -0.3
v -1.3 3.2 -0.8
v -1.3 3.2 -0.9
v -1.3 3.2 -1.3
v -1.3 3.3 1.4
v -1.3 3.3 0.1
v -1.3 3.3 0
v -1.3 3.3 -1.3
v -1.3 3.6 1.4
v -1.3 3.6 0.1
v -1.3 3.6 0
v -1.3 3.6 -1.3
v -1.3 3.7 1.4
v -1.3 3.7 -1.3
v -1.3 3.9 1.4
v -1.3 3.9 -1.3
v -1.3 4.2 1.4
v -1.3 4.2 -1.3
v -1.3 4.3 1.4
v -1.3 4.3 -1.3
v -1.1 5.7 1.4
v -1.1 5.7 -1.3
v -1.1 5.9 0.1
v -1.1 5.9 0
v -1.1 6.1 1.4
v -1.1 6.1 0.1
v -1.1 6.1 0
v -1.1 6.1 -1.3
v -1.1 6.2 1.4
v -1.1 6.2 0.1
v -1.1 6.2 0
v -1.1 6.2 -1.3
v -0.5 4.3 1.4
v -0.5 4.3 0.2
v -0.5 4.3 0.1
v -0.5 4.3 -1.2
v -0.5 4.3 -1.3
v -0.5 4.5 1.4
v -0.5 4.5 0.2
v -0.5 4.5 0.1
v -0.5 4.5 -1.2
v -0.5 4.6 1.4
v -0.5 4.6 0.2
v -0.5 4.6 0.1
v -0.5 4.6 -1.2
v -0.5 4.9 1.4
v -0.5 4.9 0.2
v -0.5 4.9 0.1
v -0.5 4.9 -1.2
v -0.5 5 1.4
v -0.5 5 0.2
v -0.5 5 0.1
v -0.5 5 -1.2
v -0.5 5.3 1.4
v -0.5 5.3 0.2
v -0.5 5.3 0.1
v -0.5 5.3 -1.2
v -0.5 5.4 1.4
v -0.5 5.4 0.2
v -0.5 5.4 0.1
v -0.5 5.4 -1.2
v -0.5 5.7 1.4
v -0.5 5.7 0.2
v -0.5 5.7 0.1
v -0.5 5.7 -1.2
v -0.5 5.7 -1.3
v 0.6 5.9 1.4
v 0.6 5.9 0.1
v 0.6 5.9 0
v 0.6 5.9 -1.3
v 0.6 6.1 1.4
v 0.6 6.1 0.1
v 0.6 6.1 0
v 0.6 6.1 -1.3
v 0.6 6.2 1.4
v 0.6 6.2 0.1
v 0.6 6.2 0
v 0.6 6.2 -1.3
v -0.5 5.9 1.4
v -0.5 5.9 0.1
v -0.5 5.9 0
v -0.5 5.9 -1.3
v -0.5 6.1 1.4
v -0.5 6.1 0.1
v -0.5 6.1 0
v -0.5 6.1 -1.3
v -0.5 6.2 1.4
v -0.5 6.2 0.1
v -0.5 6.2 0
v -0.5 6.2 -1.3
v 0.6 4.3 1.4
v 0.6 4.3 0.2
v 0.6 4.3 0.1
v 0.6 4.3 -1.2
v 0.6 4.3 -1.3
v 0.6 4.5 1.4
v 0.6 4.5 0.2
v 0.6 4.5 0.1
v 0.6 4.5 -1.2
v 0.6 4.6 1.4
v 0.6 4.6 0.2
v 0.6 4.6 0.1
v 0.6 4.6 -1.2
v 0.6 4.9 1.4
v 0.6 4.9 0.2
v 0.6 4.9 0.1
v 0.6 4.9 -1.2
v 0.6 5 1.4
v 0.6 5 0.2
v 0.6 5 0.1
v 0.6 5 -1.2
v 0.6 5.3 1.4
v 0.6 5.3 0.2
v 0.6 5.3 0.1
v 0.6 5.3 -1.2
v 0.6 5.4 1.4
v 0.6 5.4 0.2
v 0.6 5.4 0.1
v 0.6 5.4 -1.2
v 0.6 5.7 1.4
v 0.6 5.7 0.2
v 0.6 5.7 0.1
v 0.6 5.7 -1.2
v 0.6 5.7 -1.3
v 1.2 5.7 1.4
v 1.2 5.7 -1.3
v 1.2 5.9 0.1
v 1.2 5.9 0
v 1.2 6.1 1.4
v 1.2 6.1 0.1
v 1.2 6.1 0
v 1.2 6.1 -1.3
v 1.2 6.2 1.4
v 1.2 6.2 0.1
v 1.2 6.2 0
v 1.2 6.2 -1.3
v 1.4 0.9 1.4
v 1.4 0.9 0.1
v 1.4 0.9 0
v 1.4 0.9 -1.3
v 1.4 1.2 1.4
v 1.4 1.2 0.1
v 1.4 1.2 0
v 1.4 1.2 -1.3
v 1.4 1.3 1.4
v 1.4 1.3 1
v 1.4 1.3 0.9
v 1.4 1.3 0.4
v 1.4 1.3 0.3
v 1.4 1.3 -0.2
v 1.4 1.3 -0.3
v 1.4 1.3 -0.8
v 1.4 1.3 -0.9
v 1.4 1.3 -1.3
v 1.4 1.6 1.4
v 1.4 1.6 1
v 1.4 1.6 0.9
v 1.4 1.6 0.4
v 1.4 1.6 0.3
v 1.4 1.6 -0.2
v 1.4 1.6 -0.3
v 1.4 1.6 -0.8
v 1.4 1.6 -0.9
v 1.4 1.6 -1.3
v 1.4 1.7 1.4
v 1.4 1.7 0.1
v 1.4 1.7 0
v 1.4 1.7 -1.3
v 1.4 2 1.4
v 1.4 2 0.1
v 1.4 2 0
v 1.4 2 -1.3
v 1.4 2.1 1.4
v 1.4 2.1 1
v 1.4 2.1 0.9
v 1.4 2.1 0.4
v 1.4 2.1 0.3
v 1.4 2.1 -0.2
v 1.4 2.1 -0.3
v 1.4 2.1 -0.8
v 1.4 2.1 -0.9
v 1.4 2.1 -1.3
v 1.4 2.4 1.4
v 1.4 2.4 1
v 1.4 2.4 0.9
v 1.4 2.4 0.4
v 1.4 2.4 0.3
v 1.4 2.4 -0.2
v 1.4 2.4 -0.3
v 1.4 2.4 -0.8
v 1.4 2.4 -0.9
v 1.4 2.4 -1.3
v 1.4 2.5 1.4
v 1.4 2.5 0.1
v 1.4 2.5 0
v 1.4 2.5 -1.3
v 1.4 2.8 1.4
v 1.4 2.8 0.1
v 1.4 2.8 0
v 1.4 2.8 -1.3
v 1.4 2.9 1.4
v 1.4 2.9 1
v 1.4 2.9 0.9
v 1.4 2.9 0.4
v 1.4 2.9 0.3
v 1.4 2.9 -0.2
v 1.4 2.9 -0.3
v 1.4 2.9 -0.8
v 1.4 2.9 -0.9
v 1.4 2.9 -1.3
v 1.4 3.2 1.4
v 1.4 3.2 1
v 1.4 3.2 0.9
v 1.4 3.2 0.4
v 1.4 3.2 0.3
v 1.4 3.2 -0.2
v 1.4 3.2 -0.3
v 1.4 3.2 -0.8
v 1.4 3.2 -0.9
v 1.4 3.2 -1.3
v 1.4 3.3 1.4
v 1.4 3.3 0.1
v 1.4 3.3 0
v 1.4 3.3 -1.3
v 1.4 3.6 1.4
v 1.4 3.6 0.1
v 1.4 3.6 0
v 1.4 3.6 -1.3
v 1.4 3.7 1.4
v 1.4 3.7 -1.3
v 1.4 3.9 1.4
v 1.4 3.9 -1.3
v 1.4 4.2 1.4
v 1.4 4.2 -1.3
v 1.4 4.3 1.4
v 1.4 4.3 -1.3
v 1.5 3.9 1.4
v 1.5 3.9 -1.3
v 1.5 4.2 1.4
v 1.5 4.2 -1.3
v 1.7 0 1.4
v 1.7 0 -1.3
v 1.7 0.9 1.4
v 1.7 0.9 -1.3
v -1.6 0 1.4
v -1.6 0.9 1.4
v -1.4 3.9 1.4
v -1.4 4.2 1.4
v -1.3 0.9 1.4
v -1.3 1.2 1.4
v -1.3 1.3 1.4
v -1.3 1.6 1.4
v -1.3 1.7 1.4
v -1.3 2 1.4
v -1.3 2.1 1.4
v -1.3 2.4 1.4
v -1.3 2.5 1.4
v -1.3 2.8 1.4
v -1.3 2.9 1.4
v -1.3 3.2 1.4
v -1.3 3.3 1.4
v -1.3 3.6 1.4
v -1.3 3.7 1.4
v -1.3 3.9 1.4
v -1.3 4.2 1.4
v -1.3 4.3 1.4
v -1.1 5.7 1.4
v -1.1 6.1 1.4
v -1.1 6.2 1.4
v -0.9 0.9 1.4
v -0.9 1.2 1.4
v -0.9 1.7 1.4
v -0.9 2 1.4
v -0.9 2.5 1.4
v -0.9 2.8 1.4
v -0.9 3.3 1.4
v -0.9 3.6 1.4
v -0.8 0.9 1.4
v -0.8 1.2 1.4
v -0.8 1.7 1.4
v -0.8 2 1.4
v -0.8 2.5 1.4
v -0.8 2.8 1.4
v -0.8 3.3 1.4
v -0.8 3.6 1.4
v -0.7 4.1 1.4
v -0.7 4.2 1.4
v -0.6 4.2 1.4
v -0.6 4.3 1.4
v -0.5 4.2 1.4
v -0.5 4.3 1.4
v -0.5 4.5 1.4
v -0.5 4.6 1.4
v -0.5 4.9 1.4
v -0.5 5 1.4
v -0.5 5.3 1.4
v -0.5 5.4 1.4
v -0.5 5.7 1.4
v -0.5 5.8 1.4
v -0.5 5.9 1.4
v -0.5 6.1 1.4
v -0.5 6.2 1.4
v -0.3 0.9 1.4
v -0.3 1.2 1.4
v -0.3 1.7 1.4
v -0.3 2 1.4
v -0.3 2.5 1.4
v -0.3 2.8 1.4
v -0.3 3.3 1.4
v -0.3 3.6 1.4
v -0.2 0.9 1.4
v -0.2 1.2 1.4
v -0.2 1.7 1.4
v -0.2 2 1.4
v -0.2 2.5 1.4
v -0.2 2.8 1.4
v -0.2 3.3 1.4
v -0.2 3.6 1.4
v 0 1.3 1.4
v 0 1.6 1.4
v 0 2.1 1.4
v 0 2.4 1.4
v 0 2.9 1.4
v 0 3.2 1.4
v 0 4.2 1.4
v 0 4.5 1.4
v 0 4.6 1.4
v 0 4.9 1.4
v 0 5 1.4
v 0 5.3 1.4
v 0 5.4 1.4
v 0 5.7 1.4
v 0.1 1.3 1.4
v 0.1 1.6 1.4
v 0.1 2.1 1.4
v 0.1 2.4 1.4
v 0.1 2.9 1.4
v 0.1 3.2 1.4
v 0.1 4.2 1.4
v 0.1 4.5 1.4
v 0.1 4.6 1.4
v 0.1 4.9 1.4
v 0.1 5 1.4
v 0.1 5.3 1.4
v 0.1 5.4 1.4
v 0.1 5.7 1.4
v 0.3 0.9 1.4
v 0.3 1.2 1.4
v 0.3 1.7 1.4
v 0.3 2 1.4
v 0.3 2.5 1.4
v 0.3 2.8 1.4
v 0.3 3.3 1.4
v 0.3 3.6 1.4
v 0.4 0.9 1.4
v 0.4 1.2 1.4
v 0.4 1.7 1.4
v 0.4 2 1.4
v 0.4 2.5 1.4
v 0.4 2.8 1.4
v 0.4 3.3 1.4
v 0.4 3.6 1.4
v 0.6 4.2 1.4
v 0.6 4.3 1.4
v 0.6 4.5 1.4
v 0.6 4.6 1.4
v 0.6 4.9 1.4
v 0.6 5 1.4
v 0.6 5.3 1.4
v 0.6 5.4 1.4
v 0.6 5.7 1.4
v 0.6 5.8 1.4
v 0.6 5.9 1.4
v 0.6 6.1 1.4
v 0.6 6.2 1.4
v 0.7 4.2 1.4
v 0.7 4.3 1.4
v 0.8 4.1 1.4
v 0.8 4.2 1.4
v 0.9 0.9 1.4
v 0.9 1.2 1.4
v 0.9 1.7 1.4
v 0.9 2 1.4
v 0.9 2.5 1.4
v 0.9 2.8 1.4
v 0.9 3.3 1.4
v 0.9 3.6 1.4
v 1 0.9 1.4
v 1 1.2 1.4
v 1 1.7 1.4
v 1 2 1.4
v 1 2.5 1.4
v 1 2.8 1.4
v 1 3.3 1.4
v 1 3.6 1.4
v 1.2 5.7 1.4
v 1.2 6.1 1.4
v 1.2 6.2 1.4
v 1.4 0.9 1.4
v 1.4 1.2 1.4
v 1.4 1.3 1.4
v 1.4 1.6 1.4
v 1.4 1.7 1.4
v 1.4 2 1.4
v 1.4 2.1 1.4
v 1.4 2.4 1.4
v 1.4 2.5 1.4
v 1.4 2.8 1.4
v 1.4 2.9 1.4
v 1.4 3.2 1.4
v 1.4 3.3 1.4
v 1.4 3.6 1.4
v 1.4 3.7 1.4
v 1.4 3.9 1.4
v 1.4 4.2 1.4
v 1.4 4.3 1.4
v 1.5 3.9 1.4
v 1.5 4.2 1.4
v 1.7 0 1.4
v 1.7 0.9 1.4
v -1.1 5.9 0
v -1.1 6.1 0
v -1.1 6.2 0
v -0.5 5.9 0
v -0.5 6.1 0
v -0.5 6.2 0
v 0.6 5.9 0
v 0.6 6.1 0
v 0.6 6.2 0
v 1.2 5.9 0
v 1.2 6.1 0
v 1.2 6.2 0
v -1.1 5.9 0.1
v -1.1 6.1 0.1
v -1.1 6.2 0.1
v -0.5 5.9 0.1
v -0.5 6.1 0.1
v -0.5 6.2 0.1
v 0.6 5.9 0.1
v 0.6 6.1 0.1
v 0.6 6.2 0.1
v 1.2 5.9 0.1
v 1.2 6.1 0.1
v 1.2 6.2 0.1
v -1.6 0 -1.3
v -1.6 0.9 -1.3
v -1.4 3.9 -1.3
v -1.4 4.2 -1.3
v -1.3 0.9 -1.3
v -1.3 1.2 -1.3
v -1.3 1.3 -1.3
v -1.3 1.6 -1.3
v -1.3 1.7 -1.3
v -1.3 2 -1.3
v -1.3 2.1 -1.3
v -1.3 2.4 -1.3
v -1.3 2.5 -1.3
v -1.3 2.8 -1.3
v -1.3 2.9 -1.3
v -1.3 3.2 -1.3
v -1.3 3.3 -1.3
v -1.3 3.6 -1.3
v -1.3 3.7 -1.3
v -1.3 3.9 -1.3
v -1.3 4.2 -1.3
v -1.3 4.3 -1.3
v -1.1 5.7 -1.3
v -1.1 6.1 -1.3
v -1.1 6.2 -1.3
v -0.9 0.9 -1.3
v -0.9 1.2 -1.3
v -0.9 1.7 -1.3
v -0.9 2 -1.3
v -0.9 2.5 -1.3
v -0.9 2.8 -1.3
v -0.9 3.3 -1.3
v -0.9 3.6 -1.3
v -0.8 0.9 -1.3
v -0.8 1.2 -1.3
v -0.8 1.7 -1.3
v -0.8 2 -1.3
v -0.8 2.5 -1.3
v -0.8 2.8 -1.3
v -0.8 3.3 -1.3
v -0.8 3.6 -1.3
v -0.7 4.1 -1.3
v -0.7 4.2 -1.3
v -0.6 4.2 -1.3
v -0.6 4.3 -1.3
v -0.5 4.3 -1.3
v -0.5 5.7 -1.3
v -0.5 5.8 -1.3
v -0.5 5.9 -1.3
v -0.5 6.1 -1.3
v -0.5 6.2 -1.3
v -0.3 0.9 -1.3
v -0.3 1.2 -1.3
v -0.3 1.7 -1.3
v -0.3 2 -1.3
v -0.3 2.5 -1.3
v -0.3 2.8 -1.3
v -0.3 3.3 -1.3
v -0.3 3.6 -1.3
v -0.2 0.9 -1.3
v -0.2 1.2 -1.3
v -0.2 1.7 -1.3
v -0.2 2 -1.3
v -0.2 2.5 -1.3
v -0.2 2.8 -1.3
v -0.2 3.3 -1.3
v -0.2 3.6 -1.3
v 0 1.3 -1.3
v 0 1.6 -1.3
v 0 2.1 -1.3
v 0 2.4 -1.3
v 0 2.9 -1.3
v 0 3.2 -1.3
v 0.1 1.3 -1.3
v 0.1 1.6 -1.3
v 0.1 2.1 -1.3
v 0.1 2.4 -1.3
v 0.1 2.9 -1.3
v 0.1 3.2 -1.3
v 0.3 0.9 -1.3
v 0.3 1.2 -1.3
v 0.3 1.7 -1.3
v 0.3 2 -1.3
v 0.3 2.5 -1.3
v 0.3 2.8 -1.3
v 0.3 3.3 -1.3
v 0.3 3.6 -1.3
v 0.4 0.9 -1.3
v 0.4 1.2 -1.3
v 0.4 1.7 -1.3
v 0.4 2 -1.3
v 0.4 2.5 -1.3
v 0.4 2.8 -1.3
v 0.4 3.3 -1.3
v 0.4 3.6 -1.3
v 0.6 4.3 -1.3
v 0.6 5.7 -1.3
v 0.6 5.8 -1.3
v 0.6 5.9 -1.3
v 0.6 6.1 -1.3
v 0.6 6.2 -1.3
v 0.7 4.2 -1.3
v 0.7 4.3 -1.3
v 0.8 4.1 -1.3
v 0.8 4.2 -1.3
v 0.9 0.9 -1.3
v 0.9 1.2 -1.3
v 0.9 1.7 -1.3
v 0.9 2 -1.3
v 0.9 2.5 -1.3
v 0.9 2.8 -1.3
v 0.9 3.3 -1.3
v 0.9 3.6 -1.3
v 1 0.9 -1.3
v 1 1.2 -1.3
v 1 1.7 -1.3
v 1 2 -1.3
v 1 2.5 -1.3
v 1 2.8 -1.3
v 1 3.3 -1.3
v 1 3.6 -1.3
v 1.2 5.7 -1.3
v 1.2 6.1 -1.3
v 1.2 6.2 -1.3
v 1.4 0.9 -1.3
v 1.4 1.2 -1.3
v 1.4 1.3 -1.3
v 1.4 1.6 -1.3
v 1.4 1.7 -1.3
v 1.4 2 -1.3
v 1.4 2.1 -1.3
v 1.4 2.4 -1.3
v 1.4 2.5 -1.3
v 1.4 2.8 -1.3
v 1.4 2.9 -1.3
v 1.4 3.2 -1.3
v 1.4 3.3 -1.3
v 1.4 3.6 -1.3
v 1.4 3.7 -1.3
v 1.4 3.9 -1.3
v 1.4 4.2 -1.3
v 1.4 4.3 -1.3
v 1.5 3.9 -1.3
v 1.5 4.2 -1.3
v 1.7 0 -1.3
v 1.7 0.9 -1.3
v -1.6 0 1.4
v 1.7 0 1.4
v -1.6 0 -1.3
v 1.7 0 -1.3
v -1.4 3.9 1.4
v -1.3 3.9 1.4
v 1.4 3.9 1.4
v 1.5 3.9 1.4
v -1.4 3.9 -1.3
v -1.3 3.9 -1.3
v 1.4 3.9 -1.3
v 1.5 3.9 -1.3
v -1.1 5.7 1.4
v -0.5 5.7 1.4
v 0.6 5.7 1.4
v 1.2 5.7 1.4
v -0.5 5.7 0.2
v 0.6 5.7 0.2
v -0.5 5.7 0.1
v 0.6 5.7 0.1
v -0.5 5.7 -1.2
v 0.6 5.7 -1.2
v -1.1 5.7 -1.3
v -0.5 5.7 -1.3
v 0.6 5.7 -1.3
v 1.2 5.7 -1.3
v -1.6 0.9 1.4
v -1.3 0.9 1.4
v 1.4 0.9 1.4
v 1.7 0.9 1.4
v -1.3 0.9 0.1
v 1.4 0.9 0.1
v -1.3 0.9 0
v 1.4 0.9 0
v -1.6 0.9 -1.3
v -1.3 0.9 -1.3
v 1.4 0.9 -1.3
v 1.7 0.9 -1.3
v -1.4 4.2 1.4
v -1.3 4.2 1.4
v 1.4 4.2 1.4
v 1.5 4.2 1.4
v -1.4 4.2 -1.3
v -1.3 4.2 -1.3
v 1.4 4.2 -1.3
v 1.5 4.2 -1.3
v -1.3 4.3 1.4
v -0.6 4.3 1.4
v -0.5 4.3 1.4
v 0.6 4.3 1.4
v 0.7 4.3 1.4
v 1.4 4.3 1.4
v -0.5 4.3 0.2
v 0.6 4.3 0.2
v -0.5 4.3 0.1
v 0.6 4.3 0.1
v -0.5 4.3 -1.2
v 0.6 4.3 -1.2
v -1.3 4.3 -1.3
v -0.6 4.3 -1.3
v -0.5 4.3 -1.3
v 0.6 4.3 -1.3
v 0.7 4.3 -1.3
v 1.4 4.3 -1.3
v -0.5 5.9 1.4
v 0.6 5.9 1.4
v -1.1 5.9 0.1
v -0.5 5.9 0.1
v 0.6 5.9 0.1
v 1.2 5.9 0.1
v -1.1 5.9 0
v -0.5 5.9 0
v 0.6 5.9 0
v 1.2 5.9 0
v -0.5 5.9 -1.3
v 0.6 5.9 -1.3
v -1.1 6.2 1.4
v -0.5 6.2 1.4
v 0.6 6.2 1.4
v 1.2 6.2 1.4
v -1.1 6.2 0.1
v -0.5 6.2 0.1
v 0.6 6.2 0.1
v 1.2 6.2 0.1
v -1.1 6.2 0
v -0.5 6.2 0
v 0.6 6.2 0
v 1.2 6.2 0
v -1.1 6.2 -1.3
v -0.5 6.2 -1.3
v 0.6 6.2 -1.3
v 1.2 6.2 -1.3

# faces
f 3/1/1 2/1/1 1/1/1
f 4/1/1 2/1/1 3/1/1
f 7/3/1 6/3/1 5/3/1
f 8/3/1 6/3/1 7/3/1
f 13/2/1 10/2/1 9/2/1
f 14/4/1 11/4/1 10/4/1
f 14/2/1 10/2/1 13/2/1
f 15/2/1 12/2/1 11/2/1
f 15/4/1 11/4/1 14/4/1
f 16/2/1 12/2/1 15/2/1
f 17/4/1 14/4/1 13/4/1
f 17/4/1 15/4/1 14/4/1
f 17/4/1 16/4/1 15/4/1
f 18/4/1 16/4/1 17/4/1
f 19/4/1 16/4/1 18/4/1
f 20/4/1 16/4/1 19/4/1
f 21/4/1 16/4/1 20/4/1
f 22/4/1 16/4/1 21/4/1
f 23/4/1 16/4/1 22/4/1
f 24/4/1 16/4/1 23/4/1
f 25/4/1 16/4/1 24/4/1
f 26/4/1 16/4/1 25/4/1
f 27/2/1 18/2/1 17/2/1
f 28/4/1 19/4/1 18/4/1
f 28/2/1 18/2/1 27/2/1
f 29/2/1 20/2/1 19/2/1
f 29/4/1 19/4/1 28/4/1
f 30/4/1 21/4/1 20/4/1
f 30/2/1 20/2/1 29/2/1
f 31/2/1 22/2/1 21/2/1
f 31/4/1 21/4/1 30/4/1
f 32/4/1 23/4/1 22/4/1
f 32/2/1 22/2/1 31/2/1
f 33/2/1 24/2/1 23/2/1
f 33/4/1 23/4/1 32/4/1
f 34/4/1 25/4/1 24/4/1
f 34/2/1 24/2/1 33/2/1
f 35/2/1 26/2/1 25/2/1
f 35/4/1 25/4/1 34/4/1
f 36/2/1 26/2/1 35/2/1
f 37/4/1 28/4/1 27/4/1
f 37/4/1 29/4/1 28/4/1
f 37/4/1 36/4/1 35/4/1
f 37/4/1 35/4/1 34/4/1
f 37/4/1 34/4/1 33/4/1
f 37/4/1 33/4/1 32/4/1
f 37/4/1 32/4/1 31/4/1
f 37/4/1 31/4/1 30/4/1
f 37/4/1 30/4/1 29/4/1
f 38/4/1 36/4/1 37/4/1
f 39/4/1 36/4/1 38/4/1
f 40/4/1 36/4/1 39/4/1
f 41/2/1 38/2/1 37/2/1
f 42/4/1 39/4/1 38/4/1
f 42/2/1 38/2/1 41/2/1
f 43/2/1 40/2/1 39/2/1
f 43/4/1 39/4/1 42/4/1
f 44/2/1 40/2/1 43/2/1
f 45/4/1 42/4/1 41/4/1
f 45/4/1 43/4/1 42/4/1
f 45/4/1 44/4/1 43/4/1
f 46/4/1 44/4/1 45/4/1
f 47/4/1 44/4/1 46/4/1
f 48/4/1 44/4/1 47/4/1
f 49/4/1 44/4/1 48/4/1
f 50/4/1 44/4/1 49/4/1
f 51/4/1 44/4/1 50/4/1
f 52/4/1 44/4/1 51/4/1
f 53/4/1 44/4/1 52/4/1
f 54/4/1 44/4/1 53/4/1
f 55/2/1 46/2/1 45/2/1
f 56/4/1 47/4/1 46/4/1
f 56/2/1 46/2/1 55/2/1
f 57/2/1 48/2/1 47/2/1
f 57/4/1 47/4/1 56/4/1
f 58/4/1 49/4/1 48/4/1
f 58/2/1 48/2/1 57/2/1
f 59/2/1 50/2/1 49/2/1
f 59/4/1 49/4/1 58/4/1
f 60/4/1 51/4/1 50/4/1
f 60/2/1 50/2/1 59/2/1
f 61/2/1 52/2/1 51/2/1
f 61/4/1 51/4/1 60/4/1
f 62/4/1 53/4/1 52/4/1
f 62/2/1 52/2/1 61/2/1
f 63/2/1 54/2/1 53/2/1
f 63/4/1 53/4/1 62/4/1
f 64/2/1 54/2/1 63/2/1
f 65/4/1 56/4/1 55/4/1
f 65/4/1 57/4/1 56/4/1
f 65/4/1 64/4/1 63/4/1
f 65/4/1 63/4/1 62/4/1
f 65/4/1 62/4/1 61/4/1
f 65/4/1 61/4/1 60/4/1
f 65/4/1 60/4/1 59/4/1
f 65/4/1 59/4/1 58/4/1
f 65/4/1 58/4/1 57/4/1
f 66/4/1 64/4/1 65/4/1
f 67/4/1 64/4/1 66/4/1
f 68/4/1 64/4/1 67/4/1
f 69/2/1 66/2/1 65/2/1
f 70/4/1 67/4/1 66/4/1
f 70/2/1 66/2/1 69/2/1
f 71/2/1 68/2/1 67/2/1
f 71/4/1 67/4/1 70/4/1
f 72/2/1 68/2/1 71/2/1
f 73/4/1 70/4/1 69/4/1
f 73/4/1 71/4/1 70/4/1
f 73/4/1 72/4/1 71/4/1
f 74/4/1 72/4/1 73/4/1
f 75/4/1 72/4/1 74/4/1
f 76/4/1 72/4/1 75/4/1
f 77/4/1 72/4/1 76/4/1
f 78/4/1 72/4/1 77/4/1
f 79/4/1 72/4/1 78/4/1
f 80/4/1 72/4/1 79/4/1
f 81/4/1 72/4/1 80/4/1
f 82/4/1 72/4/1 81/4/1
f 83/2/1 74/2/1 73/2/1
f 84/4/1 75/4/1 74/4/1
f 84/2/1 74/2/1 83/2/1
f 85/2/1 76/2/1 75/2/1
f 85/4/1 75/4/1 84/4/1
f 86/4/1 77/4/1 76/4/1
f 86/2/1 76/2/1 85/2/1
f 87/2/1 78/2/1 77/2/1
f 87/4/1 77/4/1 86/4/1
f 88/4/1 79/4/1 78/4/1
f 88/2/1 78/2/1 87/2/1
f 89/2/1 80/2/1 79/2/1
f 89/4/1 79/4/1 88/4/1
f 90/4/1 81/4/1 80/4/1
f 90/2/1 80/2/1 89/2/1
f 91/2/1 82/2/1 81/2/1
f 91/4/1 81/4/1 90/4/1
f 92/2/1 82/2/1 91/2/1
f 93/4/1 84/4/1 83/4/1
f 93/4/1 85/4/1 84/4/1
f 93/4/1 92/4/1 91/4/1
f 93/4/1 91/4/1 90/4/1
f 93/4/1 90/4/1 89/4/1
f 93/4/1 89/4/1 88/4/1
f 93/4/1 88/4/1 87/4/1
f 93/4/1 87/4/1 86/4/1
f 93/4/1 86/4/1 85/4/1
f 94/4/1 92/4/1 93/4/1
f 95/4/1 92/4/1 94/4/1
f 96/4/1 92/4/1 95/4/1
f 97/2/1 94/2/1 93/2/1
f 98/4/1 95/4/1 94/4/1
f 98/2/1 94/2/1 97/2/1
f 99/2/1 96/2/1 95/2/1
f 99/4/1 95/4/1 98/4/1
f 100/2/1 96/2/1 99/2/1
f 101/4/1 98/4/1 97/4/1
f 101/4/1 99/4/1 98/4/1
f 101/4/1 100/4/1 99/4/1
f 102/4/1 100/4/1 101/4/1
f 103/3/1 102/3/1 101/3/1
f 104/3/1 102/3/1 103/3/1
f 107/3/1 106/3/1 105/3/1
f 108/3/1 106/3/1 107/3/1
f 111/3/1 110/3/1 109/3/1
f 112/3/1 110/3/1 111/3/1
f 113/3/1 111/3/1 109/3/1
f 114/3/1 111/3/1 113/3/1
f 115/3/1 110/3/1 112/3/1
f 116/3/1 110/3/1 115/3/1
f 117/1/1 114/1/1 113/1/1
f 118/1/1 114/1/1 117/1/1
f 119/1/1 116/1/1 115/1/1
f 120/1/1 116/1/1 119/1/1
f 126/2/1 122/2/1 121/2/1
f 127/4/1 123/4/1 122/4/1
f 127/2/1 122/2/1 126/2/1
f 128/2/1 124/2/1 123/2/1
f 128/4/1 123/4/1 127/4/1
f 129/4/1 125/4/1 124/4/1
f 129/2/1 124/2/1 128/2/1
f 130/4/1 128/4/1 127/4/1
f 130/4/1 127/4/1 126/4/1
f 130/4/1 129/4/1 128/4/1
f 131/4/1 129/4/1 130/4/1
f 132/4/1 129/4/1 131/4/1
f 133/4/1 125/4/1 129/4/1
f 133/4/1 129/4/1 132/4/1
f 134/2/1 131/2/1 130/2/1
f 135/4/1 132/4/1 131/4/1
f 135/2/1 131/2/1 134/2/1
f 136/2/1 133/2/1 132/2/1
f 136/4/1 132/4/1 135/4/1
f 137/4/1 125/4/1 133/4/1
f 137/2/1 133/2/1 136/2/1
f 138/4/1 136/4/1 135/4/1
f 138/4/1 135/4/1 134/4/1
f 138/4/1 137/4/1 136/4/1
f 139/4/1 137/4/1 138/4/1
f 140/4/1 137/4/1 139/4/1
f 141/4/1 125/4/1 137/4/1
f 141/4/1 137/4/1 140/4/1
f 142/2/1 139/2/1 138/2/1
f 143/4/1 140/4/1 139/4/1
f 143/2/1 139/2/1 142/2/1
f 144/2/1 141/2/1 140/2/1
f 144/4/1 140/4/1 143/4/1
f 145/4/1 125/4/1 141/4/1
f 145/2/1 141/2/1 144/2/1
f 146/4/1 144/4/1 143/4/1
f 146/4/1 143/4/1 142/4/1
f 146/4/1 145/4/1 144/4/1
f 147/4/1 145/4/1 146/4/1
f 148/4/1 145/4/1 147/4/1
f 149/4/1 125/4/1 145/4/1
f 149/4/1 145/4/1 148/4/1
f 150/2/1 147/2/1 146/2/1
f 151/4/1 148/4/1 147/4/1
f 151/2/1 147/2/1 150/2/1
f 152/2/1 149/2/1 148/2/1
f 152/4/1 148/4/1 151/4/1
f 153/4/1 125/4/1 149/4/1
f 153/2/1 149/2/1 152/2/1
f 154/4/1 125/4/1 153/4/1
f 159/3/1 156/3/1 155/3/1
f 160/3/1 156/3/1 159/3/1
f 161/3/1 158/3/1 157/3/1
f 162/3/1 158/3/1 161/3/1
f 163/1/1 160/1/1 159/1/1
f 164/1/1 160/1/1 163/1/1
f 165/1/1 162/1/1 161/1/1
f 166/1/1 162/1/1 165/1/1
f 167/3/2 168/3/2 171/3/2
f 171/3/2 168/3/2 172/3/2
f 169/3/2 170/3/2 173/3/2
f 173/3/2 170/3/2 174/3/2
f 171/1/2 172/1/2 175/1/2
f 175/1/2 172/1/2 176/1/2
f 173/1/2 174/1/2 177/1/2
f 177/1/2 174/1/2 178/1/2
f 179/2/2 180/2/2 184/2/2
f 180/4/2 181/4/2 185/4/2
f 184/2/2 180/2/2 185/2/2
f 181/2/2 182/2/2 186/2/2
f 185/4/2 181/4/2 186/4/2
f 182/4/2 183/4/2 187/4/2
f 186/2/2 182/2/2 187/2/2
f 185/4/2 186/4/2 188/4/2
f 184/4/2 185/4/2 188/4/2
f 186/4/2 187/4/2 188/4/2
f 188/4/2 187/4/2 189/4/2
f 189/4/2 187/4/2 190/4/2
f 187/4/2 183/4/2 191/4/2
f 190/4/2 187/4/2 191/4/2
f 188/2/2 189/2/2 192/2/2
f 189/4/2 190/4/2 193/4/2
f 192/2/2 189/2/2 193/2/2
f 190/2/2 191/2/2 194/2/2
f 193/4/2 190/4/2 194/4/2
f 191/4/2 183/4/2 195/4/2
f 194/2/2 191/2/2 195/2/2
f 193/4/2 194/4/2 196/4/2
f 192/4/2 193/4/2 196/4/2
f 194/4/2 195/4/2 196/4/2
f 196/4/2 195/4/2 197/4/2
f 197/4/2 195/4/2 198/4/2
f 195/4/2 183/4/2 199/4/2
f 198/4/2 195/4/2 199/4/2
f 196/2/2 197/2/2 200/2/2
f 197/4/2 198/4/2 201/4/2
f 200/2/2 197/2/2 201/2/2
f 198/2/2 199/2/2 202/2/2
f 201/4/2 198/4/2 202/4/2
f 199/4/2 183/4/2 203/4/2
f 202/2/2 199/2/2 203/2/2
f 201/4/2 202/4/2 204/4/2
f 200/4/2 201/4/2 204/4/2
f 202/4/2 203/4/2 204/4/2
f 204/4/2 203/4/2 205/4/2
f 205/4/2 203/4/2 206/4/2
f 203/4/2 183/4/2 207/4/2
f 206/4/2 203/4/2 207/4/2
f 204/2/2 205/2/2 208/2/2
f 205/4/2 206/4/2 209/4/2
f 208/2/2 205/2/2 209/2/2
f 206/2/2 207/2/2 210/2/2
f 209/4/2 206/4/2 210/4/2
f 207/4/2 183/4/2 211/4/2
f 210/2/2 207/2/2 211/2/2
f 211/4/2 183/4/2 212/4/2
f 213/3/2 214/3/2 215/3/2
f 215/3/2 214/3/2 216/3/2
f 213/3/2 215/3/2 217/3/2
f 217/3/2 215/3/2 218/3/2
f 216/3/2 214/3/2 219/3/2
f 219/3/2 214/3/2 220/3/2
f 217/1/2 218/1/2 221/1/2
f 221/1/2 218/1/2 222/1/2
f 219/1/2 220/1/2 223/1/2
f 223/1/2 220/1/2 224/1/2
f 225/2/2 226/2/2 229/2/2
f 226/4/2 227/4/2 230/4/2
f 229/2/2 226/2/2 230/2/2
f 227/2/2 228/2/2 231/2/2
f 230/4/2 227/4/2 231/4/2
f 231/2/2 228/2/2 232/2/2
f 229/4/2 230/4/2 233/4/2
f 230/4/2 231/4/2 233/4/2
f 231/4/2 232/4/2 233/4/2
f 233/4/2 232/4/2 234/4/2
f 234/4/2 232/4/2 235/4/2
f 235/4/2 232/4/2 236/4/2
f 236/4/2 232/4/2 237/4/2
f 237/4/2 232/4/2 238/4/2
f 238/4/2 232/4/2 239/4/2
f 239/4/2 232/4/2 240/4/2
f 240/4/2 232/4/2 241/4/2
f 241/4/2 232/4/2 242/4/2
f 233/2/2 234/2/2 243/2/2
f 234/4/2 235/4/2 244/4/2
f 243/2/2 234/2/2 244/2/2
f 235/2/2 236/2/2 245/2/2
f 244/4/2 235/4/2 245/4/2
f 236/4/2 237/4/2 246/4/2
f 245/2/2 236/2/2 246/2/2
f 237/2/2 238/2/2 247/2/2
f 246/4/2 237/4/2 247/4/2
f 238/4/2 239/4/2 248/4/2
f 247/2/2 238/2/2 248/2/2
f 239/2/2 240/2/2 249/2/2
f 248/4/2 239/4/2 249/4/2
f 240/4/2 241/4/2 250/4/2
f 249/2/2 240/2/2 250/2/2
f 241/2/2 242/2/2 251/2/2
f 250/4/2 241/4/2 251/4/2
f 251/2/2 242/2/2 252/2/2
f 243/4/2 244/4/2 253/4/2
f 244/4/2 245/4/2 253/4/2
f 251/4/2 252/4/2 253/4/2
f 250/4/2 251/4/2 253/4/2
f 249/4/2 250/4/2 253/4/2
f 248/4/2 249/4/2 253/4/2
f 247/4/2 248/4/2 253/4/2
f 246/4/2 247/4/2 253/4/2
f 245/4/2 246/4/2 253/4/2
f 253/4/2 252/4/2 254/4/2
f 254/4/2 252/4/2 255/4/2
f 255/4/2 252/4/2 256/4/2
f 253/2/2 254/2/2 257/2/2
f 254/4/2 255/4/2 258/4/2
f 257/2/2 254/2/2 258/2/2
f 255/2/2 256/2/2 259/2/2
f 258/4/2 255/4/2 259/4/2
f 259/2/2 256/2/2 260/2/2
f 257/4/2 258/4/2 261/4/2
f 258/4/2 259/4/2 261/4/2
f 259/4/2 260/4/2 261/4/2
f 261/4/2 260/4/2 262/4/2
f 262/4/2 260/4/2 263/4/2
f 263/4/2 260/4/2 264/4/2
f 264/4/2 260/4/2 265/4/2
f 265/4/2 260/4/2 266/4/2
f 266/4/2 260/4/2 267/4/2
f 267/4/2 260/4/2 268/4/2
f 268/4/2 260/4/2 269/4/2
f 269/4/2 260/4/2 270/4/2
f 261/2/2 262/2/2 271/2/2
f 262/4/2 263/4/2 272/4/2
f 271/2/2 262/2/2 272/2/2
f 263/2/2 264/2/2 273/2/2
f 272/4/2 263/4/2 273/4/2
f 264/4/2 265/4/2 274/4/2
f 273/2/2 264/2/2 274/2/2
f 265/2/2 266/2/2 275/2/2
f 274/4/2 265/4/2 275/4/2
f 266/4/2 267/4/2 276/4/2
f 275/2/2 266/2/2 276/2/2
f 267/2/2 268/2/2 277/2/2
f 276/4/2 267/4/2 277/4/2
f 268/4/2 269/4/2 278/4/2
f 277/2/2 268/2/2 278/2/2
f 269/2/2 270/2/2 279/2/2
f 278/4/2 269/4/2 279/4/2
f 279/2/2 270/2/2 280/2/2
f 271/4/2 272/4/2 281/4/2
f 272/4/2 273/4/2 281/4/2
f 279/4/2 280/4/2 281/4/2
f 278/4/2 279/4/2 281/4/2
f 277/4/2 278/4/2 281/4/2
f 276/4/2 277/4/2 281/4/2
f 275/4/2 276/4/2 281/4/2
f 274/4/2 275/4/2 281/4/2
f 273/4/2 274/4/2 281/4/2
f 281/4/2 280/4/2 282/4/2
f 282/4/2 280/4/2 283/4/2
f 283/4/2 280/4/2 284/4/2
f 281/2/2 282/2/2 285/2/2
f 282/4/2 283/4/2 286/4/2
f 285/2/2 282/2/2 286/2/2
f 283/2/2 284/2/2 287/2/2
f 286/4/2 283/4/2 287/4/2
f 287/2/2 284/2/2 288/2/2
f 285/4/2 286/4/2 289/4/2
f 286/4/2 287/4/2 289/4/2
f 287/4/2 288/4/2 289/4/2
f 289/4/2 288/4/2 290/4/2
f 290/4/2 288/4/2 291/4/2
f 291/4/2 288/4/2 292/4/2
f 292/4/2 288/4/2 293/4/2
f 293/4/2 288/4/2 294/4/2
f 294/4/2 288/4/2 295/4/2
f 295/4/2 288/4/2 296/4/2
f 296/4/2 288/4/2 297/4/2
f 297/4/2 288/4/2 298/4/2
f 289/2/2 290/2/2 299/2/2
f 290/4/2 291/4/2 300/4/2
f 299/2/2 290/2/2 300/2/2
f 291/2/2 292/2/2 301/2/2
f 300/4/2 291/4/2 301/4/2
f 292/4/2 293/4/2 302/4/2
f 301/2/2 292/2/2 302/2/2
f 293/2/2 294/2/2 303/2/2
f 302/4/2 293/4/2 303/4/2
f 294/4/2 295/4/2 304/4/2
f 303/2/2 294/2/2 304/2/2
f 295/2/2 296/2/2 305/2/2
f 304/4/2 295/4/2 305/4/2
f 296/4/2 297/4/2 306/4/2
f 305/2/2 296/2/2 306/2/2
f 297/2/2 298/2/2 307/2/2
f 306/4/2 297/4/2 307/4/2
f 307/2/2 298/2/2 308/2/2
f 299/4/2 300/4/2 309/4/2
f 300/4/2 301/4/2 309/4/2
f 307/4/2 308/4/2 309/4/2
f 306/4/2 307/4/2 309/4/2
f 305/4/2 306/4/2 309/4/2
f 304/4/2 305/4/2 309/4/2
f 303/4/2 304/4/2 309/4/2
f 302/4/2 303/4/2 309/4/2
f 301/4/2 302/4/2 309/4/2
f 309/4/2 308/4/2 310/4/2
f 310/4/2 308/4/2 311/4/2
f 311/4/2 308/4/2 312/4/2
f 309/2/2 310/2/2 313/2/2
f 310/4/2 311/4/2 314/4/2
f 313/2/2 310/2/2 314/2/2
f 311/2/2 312/2/2 315/2/2
f 314/4/2 311/4/2 315/4/2
f 315/2/2 312/2/2 316/2/2
f 313/4/2 314/4/2 317/4/2
f 314/4/2 315/4/2 317/4/2
f 315/4/2 316/4/2 317/4/2
f 317/4/2 316/4/2 318/4/2
f 317/3/2 318/3/2 319/3/2
f 319/3/2 318/3/2 320/3/2
f 321/3/2 322/3/2 323/3/2
f 323/3/2 322/3/2 324/3/2
f 325/3/2 326/3/2 327/3/2
f 327/3/2 326/3/2 328/3/2
f 329/1/2 330/1/2 331/1/2
f 331/1/2 330/1/2 332/1/2
f 337/1/3 334/1/3 333/1/3
f 352/3/3 336/3/3 335/3/3
f 353/3/3 336/3/3 352/3/3
f 358/1/3 337/1/3 333/1/3
f 358/2/3 338/2/3 337/2/3
f 359/4/3 339/4/3 338/4/3
f 359/2/3 338/2/3 358/2/3
f 360/4/3 341/4/3 340/4/3
f 360/2/3 342/2/3 341/2/3
f 361/4/3 343/4/3 342/4/3
f 361/2/3 342/2/3 360/2/3
f 362/4/3 345/4/3 344/4/3
f 362/2/3 346/2/3 345/2/3
f 363/4/3 347/4/3 346/4/3
f 363/2/3 346/2/3 362/2/3
f 364/4/3 349/4/3 348/4/3
f 364/2/3 350/2/3 349/2/3
f 365/4/3 351/4/3 350/4/3
f 365/2/3 350/2/3 364/2/3
f 366/1/3 358/1/3 333/1/3
f 366/4/3 359/4/3 358/4/3
f 367/4/3 339/4/3 359/4/3
f 367/4/3 359/4/3 366/4/3
f 368/4/3 360/4/3 340/4/3
f 368/4/3 361/4/3 360/4/3
f 369/4/3 343/4/3 361/4/3
f 369/4/3 361/4/3 368/4/3
f 370/4/3 362/4/3 344/4/3
f 370/4/3 363/4/3 362/4/3
f 371/4/3 347/4/3 363/4/3
f 371/4/3 363/4/3 370/4/3
f 372/4/3 364/4/3 348/4/3
f 372/4/3 365/4/3 364/4/3
f 373/4/3 351/4/3 365/4/3
f 373/4/3 365/4/3 372/4/3
f 374/3/3 352/3/3 351/3/3
f 374/3/3 353/3/3 352/3/3
f 374/3/3 354/3/3 353/3/3
f 375/3/3 354/3/3 374/3/3
f 376/4/3 375/4/3 374/4/3
f 376/3/3 354/3/3 375/3/3
f 377/3/3 354/3/3 376/3/3
f 378/4/3 376/4/3 374/4/3
f 378/4/3 377/4/3 376/4/3
f 379/4/3 377/4/3 378/4/3
f 386/3/3 356/3/3 355/3/3
f 387/3/3 356/3/3 386/3/3
f 388/3/3 356/3/3 387/3/3
f 389/1/3 357/1/3 356/1/3
f 389/3/3 356/3/3 388/3/3
f 390/1/3 357/1/3 389/1/3
f 391/1/3 366/1/3 333/1/3
f 391/2/3 367/2/3 366/2/3
f 392/4/3 339/4/3 367/4/3
f 392/2/3 367/2/3 391/2/3
f 393/4/3 368/4/3 340/4/3
f 393/2/3 369/2/3 368/2/3
f 394/4/3 343/4/3 369/4/3
f 394/2/3 369/2/3 393/2/3
f 395/2/3 371/2/3 370/2/3
f 395/4/3 370/4/3 344/4/3
f 396/4/3 347/4/3 371/4/3
f 396/2/3 371/2/3 395/2/3
f 397/4/3 372/4/3 348/4/3
f 397/2/3 373/2/3 372/2/3
f 398/4/3 351/4/3 373/4/3
f 398/2/3 373/2/3 397/2/3
f 399/1/3 391/1/3 333/1/3
f 399/4/3 392/4/3 391/4/3
f 400/4/3 339/4/3 392/4/3
f 400/4/3 392/4/3 399/4/3
f 401/4/3 393/4/3 340/4/3
f 401/4/3 394/4/3 393/4/3
f 402/4/3 343/4/3 394/4/3
f 402/4/3 394/4/3 401/4/3
f 403/4/3 395/4/3 344/4/3
f 403/4/3 396/4/3 395/4/3
f 404/4/3 347/4/3 396/4/3
f 404/4/3 396/4/3 403/4/3
f 405/4/3 398/4/3 397/4/3
f 405/4/3 397/4/3 348/4/3
f 406/4/3 351/4/3 398/4/3
f 406/4/3 398/4/3 405/4/3
f 407/2/3 340/2/3 339/2/3
f 407/4/3 339/4/3 400/4/3
f 408/4/3 401/4/3 340/4/3
f 408/2/3 340/2/3 407/2/3
f 409/4/3 343/4/3 402/4/3
f 409/2/3 344/2/3 343/2/3
f 410/4/3 403/4/3 344/4/3
f 410/2/3 344/2/3 409/2/3
f 411/2/3 348/2/3 347/2/3
f 411/4/3 347/4/3 404/4/3
f 412/4/3 405/4/3 348/4/3
f 412/2/3 348/2/3 411/2/3
f 413/2/3 379/2/3 378/2/3
f 413/4/3 378/4/3 374/4/3
f 413/2/3 380/2/3 379/2/3
f 414/4/3 381/4/3 380/4/3
f 414/2/3 380/2/3 413/2/3
f 415/2/3 382/2/3 381/2/3
f 415/4/3 381/4/3 414/4/3
f 416/4/3 383/4/3 382/4/3
f 416/2/3 382/2/3 415/2/3
f 417/2/3 384/2/3 383/2/3
f 417/4/3 383/4/3 416/4/3
f 418/4/3 385/4/3 384/4/3
f 418/2/3 384/2/3 417/2/3
f 419/2/3 386/2/3 385/2/3
f 419/4/3 385/4/3 418/4/3
f 420/4/3 387/4/3 386/4/3
f 420/2/3 386/2/3 419/2/3
f 421/4/3 407/4/3 400/4/3
f 421/4/3 408/4/3 407/4/3
f 422/4/3 401/4/3 408/4/3
f 422/4/3 408/4/3 421/4/3
f 423/4/3 409/4/3 402/4/3
f 423/4/3 410/4/3 409/4/3
f 424/4/3 403/4/3 410/4/3
f 424/4/3 410/4/3 423/4/3
f 425/4/3 411/4/3 404/4/3
f 425/4/3 412/4/3 411/4/3
f 426/4/3 405/4/3 412/4/3
f 426/4/3 412/4/3 425/4/3
f 427/4/3 417/4/3 416/4/3
f 427/4/3 420/4/3 419/4/3
f 427/4/3 419/4/3 418/4/3
f 427/4/3 418/4/3 417/4/3
f 427/4/3 416/4/3 415/4/3
f 427/4/3 415/4/3 414/4/3
f 427/4/3 414/4/3 413/4/3
f 427/4/3 413/4/3 374/4/3
f 428/4/3 420/4/3 427/4/3
f 429/4/3 420/4/3 428/4/3
f 430/4/3 420/4/3 429/4/3
f 431/4/3 420/4/3 430/4/3
f 432/4/3 420/4/3 431/4/3
f 433/4/3 420/4/3 432/4/3
f 434/4/3 387/4/3 420/4/3
f 434/4/3 420/4/3 433/4/3
f 435/1/3 399/1/3 333/1/3
f 435/2/3 400/2/3 399/2/3
f 436/4/3 421/4/3 400/4/3
f 436/2/3 400/2/3 435/2/3
f 437/4/3 401/4/3 422/4/3
f 437/2/3 402/2/3 401/2/3
f 438/4/3 423/4/3 402/4/3
f 438/2/3 402/2/3 437/2/3
f 439/4/3 403/4/3 424/4/3
f 439/2/3 404/2/3 403/2/3
f 440/4/3 425/4/3 404/4/3
f 440/2/3 404/2/3 439/2/3
f 441/4/3 405/4/3 426/4/3
f 441/2/3 406/2/3 405/2/3
f 442/4/3 351/4/3 406/4/3
f 442/2/3 406/2/3 441/2/3
f 443/1/3 435/1/3 333/1/3
f 443/4/3 436/4/3 435/4/3
f 444/4/3 421/4/3 436/4/3
f 444/4/3 436/4/3 443/4/3
f 445/4/3 437/4/3 422/4/3
f 445/4/3 438/4/3 437/4/3
f 446/4/3 423/4/3 438/4/3
f 446/4/3 438/4/3 445/4/3
f 447/4/3 440/4/3 439/4/3
f 447/4/3 439/4/3 424/4/3
f 448/4/3 425/4/3 440/4/3
f 448/4/3 440/4/3 447/4/3
f 449/4/3 441/4/3 426/4/3
f 449/4/3 442/4/3 441/4/3
f 450/4/3 351/4/3 442/4/3
f 450/4/3 442/4/3 449/4/3
f 451/4/3 427/4/3 374/4/3
f 451/2/3 428/2/3 427/2/3
f 452/2/3 428/2/3 451/2/3
f 453/4/3 429/4/3 428/4/3
f 453/2/3 428/2/3 452/2/3
f 454/2/3 430/2/3 429/2/3
f 454/4/3 429/4/3 453/4/3
f 455/4/3 431/4/3 430/4/3
f 455/2/3 430/2/3 454/2/3
f 456/2/3 432/2/3 431/2/3
f 456/4/3 431/4/3 455/4/3
f 457/4/3 433/4/3 432/4/3
f 457/2/3 432/2/3 456/2/3
f 458/2/3 434/2/3 433/2/3
f 458/4/3 433/4/3 457/4/3
f 459/4/3 387/4/3 434/4/3
f 459/2/3 434/2/3 458/2/3
f 460/1/3 388/1/3 387/1/3
f 460/4/3 387/4/3 459/4/3
f 461/1/3 388/1/3 460/1/3
f 464/4/3 452/4/3 451/4/3
f 464/4/3 451/4/3 374/4/3
f 465/4/3 452/4/3 464/4/3
f 466/3/3 374/3/3 351/3/3
f 466/4/3 464/4/3 374/4/3
f 467/3/3 465/3/3 464/3/3
f 467/4/3 464/4/3 466/4/3
f 468/1/3 443/1/3 333/1/3
f 468/2/3 444/2/3 443/2/3
f 469/4/3 421/4/3 444/4/3
f 469/2/3 444/2/3 468/2/3
f 470/4/3 445/4/3 422/4/3
f 470/2/3 446/2/3 445/2/3
f 471/4/3 423/4/3 446/4/3
f 471/2/3 446/2/3 470/2/3
f 472/4/3 447/4/3 424/4/3
f 472/2/3 448/2/3 447/2/3
f 473/4/3 425/4/3 448/4/3
f 473/2/3 448/2/3 472/2/3
f 474/4/3 449/4/3 426/4/3
f 474/2/3 450/2/3 449/2/3
f 475/4/3 351/4/3 450/4/3
f 475/2/3 450/2/3 474/2/3
f 476/1/3 468/1/3 333/1/3
f 476/4/3 469/4/3 468/4/3
f 477/4/3 421/4/3 469/4/3
f 477/4/3 469/4/3 476/4/3
f 478/4/3 470/4/3 422/4/3
f 478/4/3 471/4/3 470/4/3
f 479/4/3 423/4/3 471/4/3
f 479/4/3 471/4/3 478/4/3
f 480/4/3 472/4/3 424/4/3
f 480/4/3 473/4/3 472/4/3
f 481/4/3 425/4/3 473/4/3
f 481/4/3 473/4/3 480/4/3
f 482/4/3 475/4/3 474/4/3
f 482/4/3 474/4/3 426/4/3
f 483/4/3 351/4/3 475/4/3
f 483/4/3 475/4/3 482/4/3
f 484/3/3 462/3/3 461/3/3
f 484/3/3 461/3/3 460/3/3
f 484/3/3 460/3/3 459/3/3
f 485/1/3 463/1/3 462/1/3
f 485/3/3 462/3/3 484/3/3
f 486/1/3 463/1/3 485/1/3
f 487/1/3 476/1/3 333/1/3
f 487/2/3 477/2/3 476/2/3
f 488/4/3 421/4/3 477/4/3
f 488/2/3 477/2/3 487/2/3
f 489/2/3 422/2/3 421/2/3
f 489/4/3 421/4/3 488/4/3
f 490/4/3 478/4/3 422/4/3
f 490/2/3 422/2/3 489/2/3
f 491/2/3 479/2/3 478/2/3
f 491/4/3 478/4/3 490/4/3
f 492/4/3 423/4/3 479/4/3
f 492/2/3 479/2/3 491/2/3
f 493/2/3 424/2/3 423/2/3
f 493/4/3 423/4/3 492/4/3
f 494/4/3 480/4/3 424/4/3
f 494/2/3 424/2/3 493/2/3
f 495/2/3 481/2/3 480/2/3
f 495/4/3 480/4/3 494/4/3
f 496/4/3 425/4/3 481/4/3
f 496/2/3 481/2/3 495/2/3
f 497/2/3 426/2/3 425/2/3
f 497/4/3 425/4/3 496/4/3
f 498/4/3 482/4/3 426/4/3
f 498/2/3 426/2/3 497/2/3
f 499/2/3 483/2/3 482/2/3
f 499/4/3 482/4/3 498/4/3
f 500/4/3 351/4/3 483/4/3
f 500/2/3 483/2/3 499/2/3
f 501/3/3 466/3/3 351/3/3
f 501/4/3 351/4/3 500/4/3
f 501/3/3 467/3/3 466/3/3
f 502/3/3 467/3/3 501/3/3
f 503/3/3 465/3/3 467/3/3
f 503/3/3 467/3/3 502/3/3
f 504/3/3 465/3/3 503/3/3
f 505/3/3 503/3/3 502/3/3
f 506/3/3 503/3/3 505/3/3
f 507/1/3 487/1/3 333/1/3
f 508/1/3 487/1/3 507/1/3
f 512/3/3 510/3/3 509/3/3
f 513/1/3 511/1/3 510/1/3
f 513/3/3 510/3/3 512/3/3
f 514/1/3 511/1/3 513/1/3
f 518/3/3 516/3/3 515/3/3
f 519/1/3 517/1/3 516/1/3
f 519/3/3 516/3/3 518/3/3
f 520/1/3 517/1/3 519/1/3
f 521/3/4 522/3/4 524/3/4
f 522/1/4 523/1/4 525/1/4
f 524/3/4 522/3/4 525/3/4
f 525/1/4 523/1/4 526/1/4
f 527/3/4 528/3/4 530/3/4
f 528/1/4 529/1/4 531/1/4
f 530/3/4 528/3/4 531/3/4
f 531/1/4 529/1/4 532/1/4
f 533/1/4 534/1/4 537/1/4
f 535/3/4 536/3/4 552/3/4
f 552/3/4 536/3/4 553/3/4
f 533/1/4 537/1/4 558/1/4
f 537/2/4 538/2/4 558/2/4
f 538/4/4 539/4/4 559/4/4
f 558/2/4 538/2/4 559/2/4
f 540/4/4 541/4/4 560/4/4
f 541/2/4 542/2/4 560/2/4
f 542/4/4 543/4/4 561/4/4
f 560/2/4 542/2/4 561/2/4
f 544/4/4 545/4/4 562/4/4
f 545/2/4 546/2/4 562/2/4
f 546/4/4 547/4/4 563/4/4
f 562/2/4 546/2/4 563/2/4
f 548/4/4 549/4/4 564/4/4
f 549/2/4 550/2/4 564/2/4
f 550/4/4 551/4/4 565/4/4
f 564/2/4 550/2/4 565/2/4
f 533/1/4 558/1/4 566/1/4
f 558/4/4 559/4/4 566/4/4
f 559/4/4 539/4/4 567/4/4
f 566/4/4 559/4/4 567/4/4
f 540/4/4 560/4/4 568/4/4
f 560/4/4 561/4/4 568/4/4
f 561/4/4 543/4/4 569/4/4
f 568/4/4 561/4/4 569/4/4
f 544/4/4 562/4/4 570/4/4
f 562/4/4 563/4/4 570/4/4
f 563/4/4 547/4/4 571/4/4
f 570/4/4 563/4/4 571/4/4
f 548/4/4 564/4/4 572/4/4
f 564/4/4 565/4/4 572/4/4
f 565/4/4 551/4/4 573/4/4
f 572/4/4 565/4/4 573/4/4
f 551/3/4 552/3/4 574/3/4
f 552/3/4 553/3/4 574/3/4
f 553/3/4 554/3/4 574/3/4
f 574/3/4 554/3/4 575/3/4
f 574/4/4 575/4/4 576/4/4
f 575/3/4 554/3/4 576/3/4
f 576/3/4 554/3/4 577/3/4
f 576/4/4 577/4/4 578/4/4
f 555/3/4 556/3/4 579/3/4
f 579/3/4 556/3/4 580/3/4
f 580/3/4 556/3/4 581/3/4
f 556/1/4 557/1/4 582/1/4
f 581/3/4 556/3/4 582/3/4
f 582/1/4 557/1/4 583/1/4
f 533/1/4 566/1/4 584/1/4
f 566/2/4 567/2/4 584/2/4
f 567/4/4 539/4/4 585/4/4
f 584/2/4 567/2/4 585/2/4
f 540/4/4 568/4/4 586/4/4
f 568/2/4 569/2/4 586/2/4
f 569/4/4 543/4/4 587/4/4
f 586/2/4 569/2/4 587/2/4
f 570/2/4 571/2/4 588/2/4
f 544/4/4 570/4/4 588/4/4
f 571/4/4 547/4/4 589/4/4
f 588/2/4 571/2/4 589/2/4
f 548/4/4 572/4/4 590/4/4
f 572/2/4 573/2/4 590/2/4
f 573/4/4 551/4/4 591/4/4
f 590/2/4 573/2/4 591/2/4
f 533/1/4 584/1/4 592/1/4
f 584/4/4 585/4/4 592/4/4
f 585/4/4 539/4/4 593/4/4
f 592/4/4 585/4/4 593/4/4
f 540/4/4 586/4/4 594/4/4
f 586/4/4 587/4/4 594/4/4
f 587/4/4 543/4/4 595/4/4
f 594/4/4 587/4/4 595/4/4
f 544/4/4 588/4/4 596/4/4
f 588/4/4 589/4/4 596/4/4
f 589/4/4 547/4/4 597/4/4
f 596/4/4 589/4/4 597/4/4
f 590/4/4 591/4/4 598/4/4
f 548/4/4 590/4/4 598/4/4
f 591/4/4 551/4/4 599/4/4
f 598/4/4 591/4/4 599/4/4
f 539/2/4 540/2/4 600/2/4
f 593/4/4 539/4/4 600/4/4
f 540/4/4 594/4/4 601/4/4
f 600/2/4 540/2/4 601/2/4
f 595/4/4 543/4/4 602/4/4
f 543/2/4 544/2/4 602/2/4
f 544/4/4 596/4/4 603/4/4
f 602/2/4 544/2/4 603/2/4
f 547/2/4 548/2/4 604/2/4
f 597/4/4 547/4/4 604/4/4
f 548/4/4 598/4/4 605/4/4
f 604/2/4 548/2/4 605/2/4
f 593/4/4 600/4/4 606/4/4
f 600/4/4 601/4/4 606/4/4
f 601/4/4 594/4/4 607/4/4
f 606/4/4 601/4/4 607/4/4
f 595/4/4 602/4/4 608/4/4
f 602/4/4 603/4/4 608/4/4
f 603/4/4 596/4/4 609/4/4
f 608/4/4 603/4/4 609/4/4
f 597/4/4 604/4/4 610/4/4
f 604/4/4 605/4/4 610/4/4
f 605/4/4 598/4/4 611/4/4
f 610/4/4 605/4/4 611/4/4
f 533/1/4 592/1/4 612/1/4
f 592/2/4 593/2/4 612/2/4
f 593/4/4 606/4/4 613/4/4
f 612/2/4 593/2/4 613/2/4
f 607/4/4 594/4/4 614/4/4
f 594/2/4 595/2/4 614/2/4
f 595/4/4 608/4/4 615/4/4
f 614/2/4 595/2/4 615/2/4
f 609/4/4 596/4/4 616/4/4
f 596/2/4 597/2/4 616/2/4
f 597/4/4 610/4/4 617/4/4
f 616/2/4 597/2/4 617/2/4
f 611/4/4 598/4/4 618/4/4
f 598/2/4 599/2/4 618/2/4
f 599/4/4 551/4/4 619/4/4
f 618/2/4 599/2/4 619/2/4
f 533/1/4 612/1/4 620/1/4
f 612/4/4 613/4/4 620/4/4
f 613/4/4 606/4/4 621/4/4
f 620/4/4 613/4/4 621/4/4
f 607/4/4 614/4/4 622/4/4
f 614/4/4 615/4/4 622/4/4
f 615/4/4 608/4/4 623/4/4
f 622/4/4 615/4/4 623/4/4
f 609/4/4 616/4/4 624/4/4
f 616/4/4 617/4/4 624/4/4
f 617/4/4 610/4/4 625/4/4
f 624/4/4 617/4/4 625/4/4
f 611/4/4 618/4/4 626/4/4
f 618/4/4 619/4/4 626/4/4
f 619/4/4 551/4/4 627/4/4
f 626/4/4 619/4/4 627/4/4
f 576/4/4 578/4/4 628/4/4
f 579/4/4 580/4/4 628/4/4
f 578/4/4 579/4/4 628/4/4
f 628/4/4 580/4/4 629/4/4
f 580/1/4 581/1/4 630/1/4
f 629/4/4 580/4/4 630/4/4
f 630/1/4 581/1/4 631/1/4
f 574/4/4 576/4/4 634/4/4
f 576/4/4 628/4/4 634/4/4
f 634/4/4 628/4/4 635/4/4
f 551/3/4 574/3/4 636/3/4
f 574/4/4 634/4/4 636/4/4
f 634/3/4 635/3/4 637/3/4
f 636/4/4 634/4/4 637/4/4
f 533/1/4 620/1/4 638/1/4
f 620/2/4 621/2/4 638/2/4
f 621/4/4 606/4/4 639/4/4
f 638/2/4 621/2/4 639/2/4
f 607/4/4 622/4/4 640/4/4
f 622/2/4 623/2/4 640/2/4
f 623/4/4 608/4/4 641/4/4
f 640/2/4 623/2/4 641/2/4
f 609/4/4 624/4/4 642/4/4
f 624/2/4 625/2/4 642/2/4
f 625/4/4 610/4/4 643/4/4
f 642/2/4 625/2/4 643/2/4
f 611/4/4 626/4/4 644/4/4
f 626/2/4 627/2/4 644/2/4
f 627/4/4 551/4/4 645/4/4
f 644/2/4 627/2/4 645/2/4
f 638/4/4 639/4/4 646/4/4
f 533/1/4 638/1/4 646/1/4
f 639/4/4 606/4/4 647/4/4
f 646/4/4 639/4/4 647/4/4
f 607/4/4 640/4/4 648/4/4
f 640/4/4 641/4/4 648/4/4
f 641/4/4 608/4/4 649/4/4
f 648/4/4 641/4/4 649/4/4
f 609/4/4 642/4/4 650/4/4
f 642/4/4 643/4/4 650/4/4
f 643/4/4 610/4/4 651/4/4
f 650/4/4 643/4/4 651/4/4
f 611/4/4 644/4/4 652/4/4
f 644/4/4 645/4/4 652/4/4
f 645/4/4 551/4/4 653/4/4
f 652/4/4 645/4/4 653/4/4
f 631/3/4 632/3/4 654/3/4
f 630/3/4 631/3/4 654/3/4
f 629/3/4 630/3/4 654/3/4
f 632/1/4 633/1/4 655/1/4
f 654/3/4 632/3/4 655/3/4
f 655/1/4 633/1/4 656/1/4
f 533/1/4 646/1/4 657/1/4
f 646/2/4 647/2/4 657/2/4
f 647/4/4 606/4/4 658/4/4
f 657/2/4 647/2/4 658/2/4
f 606/2/4 607/2/4 659/2/4
f 658/4/4 606/4/4 659/4/4
f 607/4/4 648/4/4 660/4/4
f 659/2/4 607/2/4 660/2/4
f 648/2/4 649/2/4 661/2/4
f 660/4/4 648/4/4 661/4/4
f 649/4/4 608/4/4 662/4/4
f 661/2/4 649/2/4 662/2/4
f 608/2/4 609/2/4 663/2/4
f 662/4/4 608/4/4 663/4/4
f 609/4/4 650/4/4 664/4/4
f 663/2/4 609/2/4 664/2/4
f 650/2/4 651/2/4 665/2/4
f 664/4/4 650/4/4 665/4/4
f 651/4/4 610/4/4 666/4/4
f 665/2/4 651/2/4 666/2/4
f 610/2/4 611/2/4 667/2/4
f 666/4/4 610/4/4 667/4/4
f 611/4/4 652/4/4 668/4/4
f 667/2/4 611/2/4 668/2/4
f 652/2/4 653/2/4 669/2/4
f 668/4/4 652/4/4 669/4/4
f 653/4/4 551/4/4 670/4/4
f 669/2/4 653/2/4 670/2/4
f 636/3/4 637/3/4 671/3/4
f 670/4/4 551/4/4 671/4/4
f 551/3/4 636/3/4 671/3/4
f 671/3/4 637/3/4 672/3/4
f 637/3/4 635/3/4 673/3/4
f 672/3/4 637/3/4 673/3/4
f 673/3/4 635/3/4 674/3/4
f 672/3/4 673/3/4 675/3/4
f 675/3/4 673/3/4 676/3/4
f 533/1/4 657/1/4 677/1/4
f 677/1/4 657/1/4 678/1/4
f 681/1/5 680/1/5 679/1/5
f 682/1/5 680/1/5 681/1/5
f 687/3/5 684/3/5 683/3/5
f 688/3/5 684/3/5 687/3/5
f 689/3/5 686/3/5 685/3/5
f 690/3/5 686/3/5 689/3/5
f 695/3/5 692/3/5 691/3/5
f 696/3/5 694/3/5 693/3/5
f 697/3/5 695/3/5 691/3/5
f 698/3/5 694/3/5 696/3/5
f 699/3/5 697/3/5 691/3/5
f 700/3/5 694/3/5 698/3/5
f 701/3/5 699/3/5 691/3/5
f 702/3/5 699/3/5 701/3/5
f 703/3/5 694/3/5 700/3/5
f 704/3/5 694/3/5 703/3/5
f 705/1/6 706/1/6 709/1/6
f 707/1/6 708/1/6 710/1/6
f 705/1/6 709/1/6 711/1/6
f 710/1/6 708/1/6 712/1/6
f 705/1/6 711/1/6 713/1/6
f 713/1/6 711/1/6 714/1/6
f 712/1/6 708/1/6 715/1/6
f 715/1/6 708/1/6 716/1/6
f 717/3/6 718/3/6 721/3/6
f 721/3/6 718/3/6 722/3/6
f 719/3/6 720/3/6 723/3/6
f 723/3/6 720/3/6 724/3/6
f 726/4/6 727/4/6 731/4/6
f 728/4/6 729/4/6 732/4/6
f 726/4/6 731/4/6 733/4/6
f 732/4/6 729/4/6 734/4/6
f 726/4/6 733/4/6 735/4/6
f 734/4/6 729/4/6 736/4/6
f 725/3/6 726/3/6 737/3/6
f 726/4/6 735/4/6 738/4/6
f 737/3/6 726/3/6 738/3/6
f 738/4/6 735/4/6 739/4/6
f 736/4/6 729/4/6 740/4/6
f 729/3/6 730/3/6 741/3/6
f 740/4/6 729/4/6 741/4/6
f 741/3/6 730/3/6 742/3/6
f 743/1/6 744/1/6 746/1/6
f 746/1/6 744/1/6 747/1/6
f 745/3/6 746/3/6 749/3/6
f 746/1/6 747/1/6 750/1/6
f 749/3/6 746/3/6 750/3/6
f 747/3/6 748/3/6 751/3/6
f 750/1/6 747/1/6 751/1/6
f 751/3/6 748/3/6 752/3/6
f 750/1/6 751/1/6 753/1/6
f 753/1/6 751/1/6 754/1/6
f 755/1/6 756/1/6 759/1/6
f 759/1/6 756/1/6 760/1/6
f 757/1/6 758/1/6 761/1/6
f 761/1/6 758/1/6 762/1/6
f 763/1/6 764/1/6 767/1/6
f 767/1/6 764/1/6 768/1/6
f 765/1/6 766/1/6 769/1/6
f 769/1/6 766/1/6 770/1/6
